"","triad","TOWN NAME","group","Total Properties","Median COVID Adjustment","Post-COVID 10th Percentile Adjustment","Post-COVID 90th Percentile Adjustment"
"1",1,"Hyde Park","2 - 6 Unit Multi Family",15757,-12.1150268668365,-13.1600523291972,-11.5445163324061
"2",1,"Hyde Park","Single-Family & Residential Condominiums",49214,-9.64471284895827,-10.5280418633578,-9.15055877815239
"3",1,"Jefferson","2 - 6 Unit Multi Family",31533,-13.2983505990914,-13.9876411038008,-12.3744137431586
"4",1,"Jefferson","Single-Family & Residential Condominiums",82396,-10.3228230323257,-11.0326532861174,-9.39956953118071
"5",1,"Lake","2 - 6 Unit Multi Family",26165,-13.3201511070777,-14.5587467385388,-11.710207285294
"6",1,"Lake","Single-Family & Residential Condominiums",117190,-9.79638114590836,-11.2968281887453,-8.74079205634257
"7",1,"Lake View","2 - 6 Unit Multi Family",10669,-11.1474087683828,-12.0254380554205,-9.93518832594344
"8",1,"Lake View","Single-Family & Residential Condominiums",15722,-8.88479660233927,-9.62035044433641,-7.8618596165205
"9",1,"North Chicago","2 - 6 Unit Multi Family",1580,-9.90715005116057,-9.90715005116057,-9.86231219863526
"10",1,"North Chicago","Single-Family & Residential Condominiums",4792,-7.92572004092846,-8.20225113223954,-7.84784468599165
"11",1,"Rogers Park","2 - 6 Unit Multi Family",2166,-12.8615643462893,-13.3303126334104,-12.3126556642466
"12",1,"Rogers Park","Single-Family & Residential Condominiums",6449,-10.2892514770314,-10.6642501067283,-9.8501245313973
"13",1,"South Chicago","2 - 6 Unit Multi Family",6198,-13.3019316164096,-13.6534861188165,-12.9967501007198
"14",1,"South Chicago","Single-Family & Residential Condominiums",9851,-10.6415452931277,-10.9227888950532,-8.15654445115376
"15",1,"West Chicago","2 - 6 Unit Multi Family",38448,-12.5325830351994,-14.5697546902781,-11.2521222080281
"16",1,"West Chicago","Single-Family & Residential Condominiums",28511,-9.97773400364653,-11.3458814524846,-8.47728972496946
"17",2,"Barrington","2 - 6 Unit Multi Family",51,-12.7461613827422,-12.7461613827422,-12.7461613827422
"18",2,"Barrington","Single-Family & Residential Condominiums",5314,-10.1083877885631,-10.3216518935309,-9.97879968633868
"19",2,"Elk Grove","2 - 6 Unit Multi Family",436,-13.1076188294022,-14.0984518130616,-12.6033356925821
"20",2,"Elk Grove","Single-Family & Residential Condominiums",17645,-10.4860950635217,-10.9210383741238,-10.0826685540657
"21",2,"Evanston","2 - 6 Unit Multi Family",1729,-12.2189401151808,-13.5467341394198,-10.8022755654321
"22",2,"Evanston","Single-Family & Residential Condominiums",11464,-9.10934302097171,-10.4762801386557,-8.31924174240993
"23",2,"Hanover","2 - 6 Unit Multi Family",173,-13.7595442481649,-14.0037565603858,-13.675195091826
"24",2,"Hanover","Single-Family & Residential Condominiums",24769,-10.8519349001848,-11.3259850396776,-10.2418003412908
"25",2,"Leyden","2 - 6 Unit Multi Family",1986,-14.1584112097675,-14.6342611938231,-13.4357381507697
"26",2,"Leyden","Single-Family & Residential Condominiums",21508,-11.4069541835772,-11.7074089550585,-10.5945943794759
"27",2,"Maine","2 - 6 Unit Multi Family",1046,-13.2814303764951,-14.2639691508171,-12.6644402617287
"28",2,"Maine","Single-Family & Residential Condominiums",34430,-10.6251443011961,-11.4111753206537,-9.46127313921923
"29",2,"New Trier","2 - 6 Unit Multi Family",124,-10.3866844499996,-11.3415746339404,-9.95830031872166
"30",2,"New Trier","Single-Family & Residential Condominiums",18094,-8.30934755999966,-9.19382029436095,-7.73937140446806
"31",2,"Niles","2 - 6 Unit Multi Family",1453,-13.1459969628282,-13.1459969628282,-12.9579637748676
"32",2,"Niles","Single-Family & Residential Condominiums",30488,-10.4090384507045,-10.5167975702626,-9.30224494421694
"33",2,"Northfield","2 - 6 Unit Multi Family",225,-12.2145366789221,-13.0923599200872,-11.4346285090631
"34",2,"Northfield","Single-Family & Residential Condominiums",23486,-9.14770280725049,-9.72672626680504,-8.93277642958102
"35",2,"Norwood Park","2 - 6 Unit Multi Family",306,-13.6776056597502,-13.6776056597502,-13.6776056597502
"36",2,"Norwood Park","Single-Family & Residential Condominiums",7905,-10.9420845278001,-10.9420845278001,-10.0579402576405
"37",2,"Palatine","2 - 6 Unit Multi Family",481,-13.1064852296509,-13.4455302613578,-12.6718179699787
"38",2,"Palatine","Single-Family & Residential Condominiums",26683,-10.137454375983,-10.7342061098095,-9.53569507629009
"39",2,"Schaumburg","2 - 6 Unit Multi Family",52,-13.2850430436101,-13.2850430436101,-13.0272355016756
"40",2,"Schaumburg","Single-Family & Residential Condominiums",30233,-10.5719883039589,-11.0644539054983,-9.92948198904134
"41",2,"Wheeling","2 - 6 Unit Multi Family",496,-13.2978051661795,-13.6628718751385,-12.5240033743284
"42",2,"Wheeling","Single-Family & Residential Condominiums",35900,-10.2685516116201,-10.6382441329436,-9.84603120252016
"43",3,"Berwyn","2 - 6 Unit Multi Family",3043,-14.0872197622237,-14.524076706066,-12.8185387058264
"44",3,"Berwyn","Single-Family & Residential Condominiums",9933,-11.1475427855841,-11.6192613648528,-10.2548309646611
"45",3,"Bloom","2 - 6 Unit Multi Family",1274,-14.190976910192,-14.3444288821699,-13.1804401639641
"46",3,"Bloom","Single-Family & Residential Condominiums",25957,-10.6715332332646,-11.4323661253882,-9.96492635626082
"47",3,"Bremen","2 - 6 Unit Multi Family",720,-13.5705067152002,-14.0335145818974,-13.2762633820698
"48",3,"Bremen","Single-Family & Residential Condominiums",32014,-10.7313946223588,-11.1408501762926,-9.82776502644587
"49",3,"Calumet","2 - 6 Unit Multi Family",616,-14.0411293245108,-14.0411293245108,-12.6443028255689
"50",3,"Calumet","Single-Family & Residential Condominiums",4092,-10.1154422604552,-11.2329034596086,-10.1154422604552
"51",3,"Cicero","2 - 6 Unit Multi Family",5137,-14.8149407290906,-15.1623484726456,-14.3921244178418
"52",3,"Cicero","Single-Family & Residential Condominiums",8599,-11.8940509914067,-11.9847842076428,-11.3247014146599
"53",3,"Lemont","2 - 6 Unit Multi Family",136,-13.2927632806466,-13.2927632806466,-13.2927632806466
"54",3,"Lemont","Single-Family & Residential Condominiums",7408,-10.7675883090271,-10.7825376383902,-10.1832015884453
"55",3,"Lyons","2 - 6 Unit Multi Family",2062,-13.7599993577254,-14.7342077395905,-11.115039487466
"56",3,"Lyons","Single-Family & Residential Condominiums",28083,-10.4608018950205,-11.2719409815313,-8.70807063011628
"57",3,"Oak Park","2 - 6 Unit Multi Family",1042,-11.3641042663599,-11.8633875167413,-10.1684783861293
"58",3,"Oak Park","Single-Family & Residential Condominiums",10570,-8.85523022124353,-9.38086683378224,-8.13478270890342
"59",3,"Orland","2 - 6 Unit Multi Family",242,-12.7765220168982,-12.9839067193893,-12.7765220168982
"60",3,"Orland","Single-Family & Residential Condominiums",28161,-10.3085609214851,-10.6290279120244,-9.8112914750694
"61",3,"Palos","2 - 6 Unit Multi Family",326,-14.1774993835308,-14.2115228579778,-13.4210357419309
"62",3,"Palos","Single-Family & Residential Condominiums",13682,-10.8235855495873,-11.3692182863823,-10.0687427940162
"63",3,"Proviso","2 - 6 Unit Multi Family",4150,-12.6136579859179,-14.4113295778555,-11.1987820754906
"64",3,"Proviso","Single-Family & Residential Condominiums",37734,-10.106638061329,-11.2041837574358,-9.12294802917242
"65",3,"Rich","2 - 6 Unit Multi Family",163,-12.3229341866774,-12.7487741791098,-11.4295295369268
"66",3,"Rich","Single-Family & Residential Condominiums",22262,-9.728050172289,-10.1990193432878,-9.15962819734618
"67",3,"River Forest","2 - 6 Unit Multi Family",97,-11.503471672128,-11.503471672128,-11.006939764341
"68",3,"River Forest","Single-Family & Residential Condominiums",2903,-8.90055678667274,-9.20277733770244,-8.8055518114728
"69",3,"Riverside","2 - 6 Unit Multi Family",287,-12.0171794081797,-13.0347995785943,-11.8001250902575
"70",3,"Riverside","Single-Family & Residential Condominiums",5000,-9.61374352654374,-10.4278396628755,-9.17162870961232
"71",3,"Stickney","2 - 6 Unit Multi Family",453,-13.7808956975097,-13.812201663578,-13.6828379805023
"72",3,"Stickney","Single-Family & Residential Condominiums",11825,-11.0247165580077,-11.0497613308624,-10.9462703844018
"73",3,"Thornton","2 - 6 Unit Multi Family",3120,-12.767282029814,-13.1374900344884,-12.324834272302
"74",3,"Thornton","Single-Family & Residential Condominiums",50200,-10.0920734634514,-10.5099920275907,-9.17241700607623
"75",3,"Worth","2 - 6 Unit Multi Family",1822,-13.6301263167198,-14.349511762556,-12.6247683683457
"76",3,"Worth","Single-Family & Residential Condominiums",41958,-10.6644021058101,-11.2816534707286,-10.0998146946765
